^C:\USERS\JESPOSITO\DOCUMENTS\DEV\ICONIC\ICONIC_APP\MAINWINDOW.H
C:\USERS\JESPOSITO\DOCUMENTS\DEV\ICONIC\ICONIC_APP\DEBUG\MOC_MAINWINDOW.CPP
^C:\USERS\JESPOSITO\DOCUMENTS\DEV\ICONIC\ICONIC_APP\DEBUG\MOC_PREDEFS.H.CBT
C:\USERS\JESPOSITO\DOCUMENTS\DEV\ICONIC\ICONIC_APP\DEBUG\MOC_PREDEFS.H
^C:\USERS\JESPOSITO\DOCUMENTS\DEV\ICONIC\ICONIC_APP\MAINWINDOW.UI
C:\USERS\JESPOSITO\DOCUMENTS\DEV\ICONIC\ICONIC_APP\UI_MAINWINDOW.H
^C:\USERS\JESPOSITO\DOCUMENTS\DEV\ICONIC\ICONIC_APP\PICS.QRC
C:\USERS\JESPOSITO\DOCUMENTS\DEV\ICONIC\ICONIC_APP\DEBUG\QRC_PICS.CPP
