^C:\USERS\JESPOSITO\DOCUMENTS\DEV\ICONIC\ICONIC_APP\MAINWINDOW.H
C:\Qt\Qt-5.12.8\bin\moc.exe  -DUNICODE -D_UNICODE -DWIN32 -D_ENABLE_EXTENDED_ALIGNED_STORAGE -DWIN64 -DQT_DEPRECATED_WARNINGS -DQT_WIDGETS_LIB -DQT_GUI_LIB -DQT_CORE_LIB --compiler-flavor=msvc --include C:/Users/jesposito/Documents/dev/iconic/ICONIC_App/debug/moc_predefs.h -IC:/Qt/Qt-5.12.8/mkspecs/win32-msvc -IC:/Users/jesposito/Documents/dev/iconic/ICONIC_App -IC:/Users/jesposito/Documents/dev/iconic/ICONIC_App -IC:/Qt/Qt-5.12.8/include -IC:/Qt/Qt-5.12.8/include/QtWidgets -IC:/Qt/Qt-5.12.8/include/QtGui -IC:/Qt/Qt-5.12.8/include/QtANGLE -IC:/Qt/Qt-5.12.8/include/QtCore -I"C:\Program Files (x86)\Microsoft Visual Studio\2019\Community\VC\Tools\MSVC\14.24.28314\ATLMFC\include" -I"C:\Program Files (x86)\Microsoft Visual Studio\2019\Community\VC\Tools\MSVC\14.24.28314\include" -I"C:\Program Files (x86)\Windows Kits\10\include\10.0.18362.0\ucrt" -I"C:\Program Files (x86)\Windows Kits\10\include\10.0.18362.0\shared" -I"C:\Program Files (x86)\Windows Kits\10\include\10.0.18362.0\um" -I"C:\Program Files (x86)\Windows Kits\10\include\10.0.18362.0\winrt" -I"C:\Program Files (x86)\Windows Kits\10\include\10.0.18362.0\cppwinrt" -IC:\Qt\Qt-5.12.8\include mainwindow.h -o debug\moc_mainwindow.cpp
^C:\USERS\JESPOSITO\DOCUMENTS\DEV\ICONIC\ICONIC_APP\DEBUG\MOC_PREDEFS.H.CBT
cl -BxC:\Qt\Qt-5.12.8\bin\qmake.exe -nologo -Zc:wchar_t -FS -Zc:rvalueCast -Zc:inline -Zc:strictStrings -Zc:throwingNew -Zc:referenceBinding -Zc:__cplusplus -Zi -MDd -W3 -w34100 -w34189 -w44996 -w44456 -w44457 -w44458 -wd4577 -wd4467 -E C:\Qt\Qt-5.12.8\mkspecs\features\data\dummy.cpp 2>NUL >debug\moc_predefs.h
^C:\USERS\JESPOSITO\DOCUMENTS\DEV\ICONIC\ICONIC_APP\MAINWINDOW.UI
C:\Qt\Qt-5.12.8\bin\uic.exe mainwindow.ui -o ui_mainwindow.h
^C:\USERS\JESPOSITO\DOCUMENTS\DEV\ICONIC\ICONIC_APP\PICS.QRC
C:\Qt\Qt-5.12.8\bin\rcc.exe -name pics pics.qrc -o debug\qrc_pics.cpp
