^C:\USERS\JESPOSITO\DOCUMENTS\DEV\ICONIC\ICONIC_APP\DEBUG\AVI-UTILS.OBJ|C:\USERS\JESPOSITO\DOCUMENTS\DEV\ICONIC\ICONIC_APP\DEBUG\FILEIO.OBJ|C:\USERS\JESPOSITO\DOCUMENTS\DEV\ICONIC\ICONIC_APP\DEBUG\ICCAPPLYBPC.OBJ|C:\USERS\JESPOSITO\DOCUMENTS\DEV\ICONIC\ICONIC_APP\DEBUG\ICCCMM.OBJ|C:\USERS\JESPOSITO\DOCUMENTS\DEV\ICONIC\ICONIC_APP\DEBUG\ICCCONVERTUTF.OBJ|C:\USERS\JESPOSITO\DOCUMENTS\DEV\ICONIC\ICONIC_APP\DEBUG\ICCIO.OBJ|C:\USERS\JESPOSITO\DOCUMENTS\DEV\ICONIC\ICONIC_APP\DEBUG\ICCMPEACS.OBJ|C:\USERS\JESPOSITO\DOCUMENTS\DEV\ICONIC\ICONIC_APP\DEBUG\ICCMPEBASIC.OBJ|C:\USERS\JESPOSITO\DOCUMENTS\DEV\ICONIC\ICONIC_APP\DEBUG\ICCMPEFACTORY.OBJ|C:\USERS\JESPOSITO\DOCUMENTS\DEV\ICONIC\ICONIC_APP\DEBUG\ICCPROFILE.OBJ|C:\USERS\JESPOSITO\DOCUMENTS\DEV\ICONIC\ICONIC_APP\DEBUG\ICCTAGBASIC.OBJ|C:\USERS\JESPOSITO\DOCUMENTS\DEV\ICONIC\ICONIC_APP\DEBUG\ICCTAGDICT.OBJ|C:\USERS\JESPOSITO\DOCUMENTS\DEV\ICONIC\ICONIC_APP\DEBUG\ICCTAGFACTORY.OBJ|C:\USERS\JESPOSITO\DOCUMENTS\DEV\ICONIC\ICONIC_APP\DEBUG\ICCTAGLUT.OBJ|C:\USERS\JESPOSITO\DOCUMENTS\DEV\ICONIC\ICONIC_APP\DEBUG\ICCTAGMPE.OBJ|C:\USERS\JESPOSITO\DOCUMENTS\DEV\ICONIC\ICONIC_APP\DEBUG\ICCTAGPROFSEQID.OBJ|C:\USERS\JESPOSITO\DOCUMENTS\DEV\ICONIC\ICONIC_APP\DEBUG\ICCUTIL.OBJ|C:\USERS\JESPOSITO\DOCUMENTS\DEV\ICONIC\ICONIC_APP\DEBUG\ICCXFORMFACTORY.OBJ|C:\USERS\JESPOSITO\DOCUMENTS\DEV\ICONIC\ICONIC_APP\DEBUG\MAIN.OBJ|C:\USERS\JESPOSITO\DOCUMENTS\DEV\ICONIC\ICONIC_APP\DEBUG\MAINWINDOW.OBJ|C:\USERS\JESPOSITO\DOCUMENTS\DEV\ICONIC\ICONIC_APP\DEBUG\MD5.OBJ|C:\USERS\JESPOSITO\DOCUMENTS\DEV\ICONIC\ICONIC_APP\DEBUG\MOC_MAINWINDOW.OBJ|C:\USERS\JESPOSITO\DOCUMENTS\DEV\ICONIC\ICONIC_APP\DEBUG\QRC_PICS.OBJ|C:\USERS\JESPOSITO\DOCUMENTS\DEV\ICONIC\ICONIC_APP\DEBUG\QRC_PICS.OBJ|C:\USERS\JESPOSITO\DOCUMENTS\DEV\ICONIC\ICONIC_APP\DEBUG\SAVINGTHREAD.OBJ|C:\USERS\JESPOSITO\DOCUMENTS\DEV\ICONIC\ICONIC_APP\DEBUG\STREAMTHREAD.OBJ
/OUT:"DEBUG\\ICONIC_APP.EXE" /NOLOGO /LIBPATH:"C:\PROGRAM FILES\ARRAYFIRE\V3\LIB" /LIBPATH:"C:\USERS\JESPOSITO\DOCUMENTS\DEV\LIB\BASLER\PYLON 5\DEVELOPMENT\LIB\X64" "C:\QT\QT-5.12.8\LIB\QT5WIDGETSD.LIB" "C:\QT\QT-5.12.8\LIB\QT5GUID.LIB" "C:\QT\QT-5.12.8\LIB\QT5CORED.LIB" "C:\QT\QT-5.12.8\LIB\LIBEGLD.LIB" "C:\QT\QT-5.12.8\LIB\LIBGLESV2D.LIB" GDI32.LIB USER32.LIB "C:\QT\QT-5.12.8\LIB\QTMAIND.LIB" "C:\PROGRAM FILES (X86)\WINDOWS KITS\10\LIB\10.0.18362.0\UM\X64\SHELL32.LIB" AF.LIB AFCPU.LIB AFCUDA.LIB AFOPENCL.LIB GCBASE_MD_VC120_V3_0_BASLER_PYLON_V5_0.LIB GENAPI_MD_VC120_V3_0_BASLER_PYLON_V5_0.LIB PYLONBASE_MD_VC120_V5_0.LIB PYLONC_MD_VC120.LIB PYLONGUI_MD_VC120_V5_0.LIB PYLONUTILITY_MD_VC120_V5_0.LIB KERNEL32.LIB USER32.LIB GDI32.LIB WINSPOOL.LIB COMDLG32.LIB ADVAPI32.LIB SHELL32.LIB OLE32.LIB OLEAUT32.LIB UUID.LIB ODBC32.LIB ODBCCP32.LIB /MANIFEST /MANIFESTUAC:"level='asInvoker' uiAccess='false'" /manifest:embed /DEBUG /PDB:"DEBUG\ICONIC_APP.PDB" /SUBSYSTEM:WINDOWS /TLBID:1 /DYNAMICBASE /NXCOMPAT /MACHINE:X64 "/MANIFESTDEPENDENCY:type='win32' name='Microsoft.Windows.Common-Controls' version='6.0.0.0' publicKeyToken='6595b64144ccf1df' language='*' processorArchitecture='*'" DEBUG\ICCAPPLYBPC.OBJ
DEBUG\ICCCMM.OBJ
DEBUG\ICCCONVERTUTF.OBJ
DEBUG\ICCIO.OBJ
DEBUG\ICCMPEACS.OBJ
DEBUG\ICCMPEBASIC.OBJ
DEBUG\ICCMPEFACTORY.OBJ
DEBUG\ICCPROFILE.OBJ
DEBUG\ICCTAGBASIC.OBJ
DEBUG\ICCTAGDICT.OBJ
DEBUG\ICCTAGFACTORY.OBJ
DEBUG\ICCTAGLUT.OBJ
DEBUG\ICCTAGMPE.OBJ
DEBUG\ICCTAGPROFSEQID.OBJ
DEBUG\ICCUTIL.OBJ
DEBUG\ICCXFORMFACTORY.OBJ
"DEBUG\AVI-UTILS.OBJ"
DEBUG\FILEIO.OBJ
DEBUG\MAIN.OBJ
DEBUG\MAINWINDOW.OBJ
DEBUG\MD5.OBJ
DEBUG\QRC_PICS.OBJ
DEBUG\SAVINGTHREAD.OBJ
DEBUG\STREAMTHREAD.OBJ
DEBUG\MOC_MAINWINDOW.OBJ
DEBUG\QRC_PICS.OBJ
